<svg id="Layer_1" data-name="Layer 1" xmlns="http://www.w3.org/2000/svg" xmlns:xlink="http://www.w3.org/1999/xlink" viewBox="0 0 300 200">
  <defs>
    <style>
      .cls-1 {
        fill: #2bb673;
      }

      .cls-2 {
        fill: #199b69;
      }

      .cls-3 {
        clip-path: url(#clip-path);
      }

      .cls-4 {
        fill: #beeda2;
      }

      .cls-5 {
        fill: none;
        stroke: #006838;
        stroke-linecap: round;
        stroke-linejoin: round;
        stroke-width: 4.97px;
      }

      .cls-6 {
        fill: #006838;
      }

      .cls-7 {
        fill: #678dc9;
      }
    </style>
    <clipPath id="clip-path">
      <path class="cls-1" d="M208.21,156l0,14.16c0,11.19-8,20.27-17.82,20.29h0c-9.85,0-17.86-9-17.87-20.24l0-14.16c0-9.77,6.95-17.71,15.56-17.72h4.51C201.2,138.28,208.19,146.19,208.21,156Z"/>
    </clipPath>
  </defs>
  <g>
    <g>
      <path class="cls-2" d="M215.29,68h0a0,0,0,0,1,0,0v0a20.84,20.84,0,0,1-20.84,20.84h0a0,0,0,0,1,0,0v0A20.84,20.84,0,0,1,215.29,68Z" transform="translate(15.54 -32.37) rotate(9.39)"/>
      <path class="cls-1" d="M167.54,52.62h0a32.67,32.67,0,0,1,32.67,32.67v0a0,0,0,0,1,0,0h0a32.67,32.67,0,0,1-32.67-32.67v0a0,0,0,0,1,0,0Z" transform="translate(354.04 166.98) rotate(-170.61)"/>
    </g>
    <g>
      <path class="cls-1" d="M208.21,156l0,14.16c0,11.19-8,20.27-17.82,20.29h0c-9.85,0-17.86-9-17.87-20.24l0-14.16c0-9.77,6.95-17.71,15.56-17.72h4.51C201.2,138.28,208.19,146.19,208.21,156Z"/>
      <g class="cls-3">
        <path class="cls-2" d="M207.9,150.92l1.31,11A75.82,75.82,0,0,1,171,166.28l-1.29-10.81c-1.25-10.47,5.22-19.84,14.44-20.94l4.83-.58C198.17,132.85,206.66,140.45,207.9,150.92Z"/>
      </g>
    </g>
    <path id="HAND_R" data-name="HAND R" class="cls-1" d="M241.22,171.35a24.57,24.57,0,0,0-18.81-6.74,24.71,24.71,0,0,0,26.48,25.2A24.55,24.55,0,0,0,241.22,171.35Z"/>
    <g>
      <path class="cls-1" d="M255.58,135.17l-4.92-8.87A89.65,89.65,0,0,0,128.8,91.4l-8.87,4.92a5.81,5.81,0,0,0-2.26,7.89l4.92,8.86a89,89,0,0,0,53.7,42.68,90.11,90.11,0,0,0,17.27,3.19,89,89,0,0,0,50.89-11l8.76-4.85a6,6,0,0,0,2.77-3.2A5.76,5.76,0,0,0,255.58,135.17Z"/>
      <path class="cls-2" d="M243.28,133.89l-.58-1.26a81.24,81.24,0,0,0-20.19-27.37,71.4,71.4,0,0,0-58.93-16.87A81.18,81.18,0,0,0,132,100.91l-1.16.76a2.31,2.31,0,0,0-.8,2.79l.58,1.26a81.24,81.24,0,0,0,20.19,27.37A71.4,71.4,0,0,0,209.7,150a81.18,81.18,0,0,0,31.62-12.52l1.16-.76a2.21,2.21,0,0,0,.9-1.26A2.17,2.17,0,0,0,243.28,133.89Z"/>
      <path class="cls-4" d="M241.65,135l-.58-1.21a79.3,79.3,0,0,0-19.93-26.25A71.78,71.78,0,0,0,163.44,91a79.19,79.19,0,0,0-30.81,11.72l-1.13.71a2.16,2.16,0,0,0-.76,2.66l.58,1.21a79.29,79.29,0,0,0,19.93,26.24A71.69,71.69,0,0,0,209,150.09a79.28,79.28,0,0,0,30.8-11.71l1.13-.72a2.13,2.13,0,0,0,.87-1.19A2.09,2.09,0,0,0,241.65,135Z"/>
      <g>
        <line class="cls-5" x1="158.34" y1="102.13" x2="155.25" y2="114.29"/>
        <line class="cls-5" x1="204.26" y1="110.9" x2="201.16" y2="123.07"/>
        <ellipse class="cls-6" cx="174.38" cy="129.47" rx="5.2" ry="7.56" transform="translate(-29.2 205.14) rotate(-56.98)"/>
      </g>
    </g>
    <g id="umbrella">
      <rect class="cls-7" x="108.24" y="38.57" width="4.51" height="120.68" rx="2.26" transform="translate(-16.48 22.3) rotate(-10.73)"/>
      <path class="cls-7" d="M164.71,60.91,162.44,49h0a.44.44,0,0,1,0-.1l0-.2h0c-5.22-26.58-33.63-43.53-63.8-38.1A7.13,7.13,0,0,1,92,14.26a8.56,8.56,0,0,1-2.41-.35V14c0,3.3-3.26,6-7.28,6a7.6,7.6,0,0,1-6.45-3.21A57.77,57.77,0,0,0,53.13,35.11a6,6,0,0,1,.78,8.63,5.79,5.79,0,0,1-3.15,10.65,6,6,0,0,1-2-.35s0,0,0,.05a6,6,0,0,1-5,5.91,43.8,43.8,0,0,0,.61,11h0l2.32,12.23L47,85c5.23-1,7.41-3.75,9.53-6.42s3.92-4.93,8.53-5.8,7.26.66,10.06,2.28c3,1.7,6,3.47,11.22,2.48s7.4-3.74,9.52-6.41c1.61-2,3.15-4,6.06-5.11a13.94,13.94,0,0,1,2.47-.7,15.93,15.93,0,0,1,1.95-.24c3.46-.17,5.72,1.15,8.11,2.53,3,1.7,6,3.47,11.21,2.48s7.41-3.75,9.52-6.41,3.92-4.93,8.53-5.81,7.27.66,10.07,2.29,6,3.47,11.21,2.48Zm-78.77-11a8.14,8.14,0,0,1-2.4-.35v.06c0,3.31-3.26,6-7.28,6S69,53,69,49.64a5.69,5.69,0,0,1,2.9-4.77A5.83,5.83,0,0,1,68.8,40c0-3.35,3.3-6.06,7.37-6.06.29,0,.57,0,.85,0,.79-2.66,3.69-4.63,7.16-4.63,4.07,0,7.37,2.71,7.37,6.06a5.45,5.45,0,0,1-1.77,3.93A5.61,5.61,0,0,1,93,44.14C93,47.34,89.83,49.93,85.94,49.93Z"/>
    </g>
    <g id="hand">
      <path id="HAND_L" data-name="HAND L" class="cls-1" d="M121.15,134.43a25.55,25.55,0,0,0-20.09,5.38,25.74,25.74,0,0,0,37.6,5.87A25.56,25.56,0,0,0,121.15,134.43Z"/>
    </g>
  </g>
</svg>
