<svg id="Layer_1" data-name="Layer 1" xmlns="http://www.w3.org/2000/svg" xmlns:xlink="http://www.w3.org/1999/xlink"
  viewBox="0 0 300 200">
  <defs>
    <style>
      .cls-1 {
        fill: #2bb673;
      }

      .cls-11,
      .cls-2 {
        fill: none;
      }

      .cls-3 {
        clip-path: url(#clip-path);
      }

      .cls-4 {
        fill: #199b69;
      }

      .cls-5 {
        clip-path: url(#clip-path-2);
      }

      .cls-6 {
        fill: #beeda2;
      }

      .cls-7 {
        fill: #006838;
      }

      .cls-8 {
        fill: #3994bc;
      }

      .cls-9 {
        fill: #a5dff1;
      }

      .cls-10 {
        fill: #fafdfa;
      }

      .cls-11 {
        stroke: #006838;
        stroke-linecap: round;
        stroke-linejoin: round;
        stroke-width: 4.97px;
      }
    </style>
    <clipPath id="clip-path">
      <path class="cls-1"
        d="M214.92,135.47l0,14.16c0,11.19-8,20.27-17.82,20.29h0c-9.85,0-17.86-9-17.87-20.24l0-14.16c0-9.78,7-17.71,15.56-17.72h4.51C207.91,117.78,214.9,125.69,214.92,135.47Z" />
    </clipPath>
    <clipPath id="clip-path-2">
      <path class="cls-2"
        d="M253.53,112l-.71-1.22a83.07,83.07,0,0,0-23.16-25.83A73.68,73.68,0,0,0,168,73.24a83.22,83.22,0,0,0-31,15.54l-1.11.88a2.31,2.31,0,0,0-.56,2.89l.72,1.22a82.7,82.7,0,0,0,23.15,25.83,73.64,73.64,0,0,0,61.65,11.71,83,83,0,0,0,31-15.55l1.12-.87a2.27,2.27,0,0,0,.79-1.35A2.23,2.23,0,0,0,253.53,112Z" />
    </clipPath>
  </defs>
  <g>
    <g>
      <path class="cls-1"
        d="M214.92,135.47l0,14.16c0,11.19-8,20.27-17.82,20.29h0c-9.85,0-17.86-9-17.87-20.24l0-14.16c0-9.78,7-17.71,15.56-17.72h4.51C207.91,117.78,214.9,125.69,214.92,135.47Z" />
      <g class="cls-3">
        <path class="cls-4"
          d="M214.61,130.42l1.31,11a75.83,75.83,0,0,1-38.25,4.36L176.38,135c-1.25-10.47,5.22-19.85,14.44-20.94l4.83-.58C204.88,112.35,213.37,120,214.61,130.42Z" />
      </g>
    </g>
    <g>
      <path class="cls-4"
        d="M219.88,49h.58a0,0,0,0,1,0,0v.58a21.53,21.53,0,0,1-21.53,21.53h-.58a0,0,0,0,1,0,0v-.58A21.53,21.53,0,0,1,219.88,49Z"
        transform="translate(12.6 -33.36) rotate(9.39)" />
      <path class="cls-1"
        d="M169.81,32.68h.9a33.76,33.76,0,0,1,33.76,33.76v.9a0,0,0,0,1,0,0h-.9a33.76,33.76,0,0,1-33.76-33.76v-.9A0,0,0,0,1,169.81,32.68Z"
        transform="translate(363.61 129.88) rotate(-170.61)" />
      <path id="hrad" class="cls-1"
        d="M265.24,111.74l-5.83-8.61A91.49,91.49,0,0,0,132,78.87l-8.59,5.86A6,6,0,0,0,121.8,93l5.83,8.61a91,91,0,0,0,58.69,38.63,92,92,0,0,0,17.9,1.64,91,91,0,0,0,50.86-16l8.59-5.87A6,6,0,0,0,265.24,111.74Z" />
      <g class="cls-5">
        <path class="cls-4"
          d="M253.53,112l-.71-1.22a83.07,83.07,0,0,0-23.16-25.83A73.68,73.68,0,0,0,168,73.24a83.22,83.22,0,0,0-31,15.54l-1.11.88a2.31,2.31,0,0,0-.56,2.89l.72,1.22a82.7,82.7,0,0,0,23.15,25.83,73.64,73.64,0,0,0,61.65,11.71,83,83,0,0,0,31-15.55l1.12-.87a2.27,2.27,0,0,0,.79-1.35A2.23,2.23,0,0,0,253.53,112Z" />
      </g>
      <path class="cls-6"
        d="M252,113.26l-.7-1.18a81.26,81.26,0,0,0-22.74-25A73.13,73.13,0,0,0,168.21,75.6a81.18,81.18,0,0,0-30.32,14.89l-1.08.84a2.19,2.19,0,0,0-.53,2.79l.7,1.18a81.09,81.09,0,0,0,22.74,25,73.13,73.13,0,0,0,60.35,11.49,81.23,81.23,0,0,0,30.32-14.88l1.08-.84a2.17,2.17,0,0,0,.78-1.3A2.13,2.13,0,0,0,252,113.26Z" />
    </g>
    <path class="cls-7"
      d="M200,122.27a69.13,69.13,0,0,0-11.55-1.78,38.09,38.09,0,0,0-10.92,1.62,1.17,1.17,0,0,1-1.08-1c-.61-3.31-1.7-13.52,8.35-13.38,9.28.12,14.32,8.78,16.12,12.69A1.25,1.25,0,0,1,200,122.27Z" />
    <path class="cls-1"
      d="M219.89,144.92h.65A24.12,24.12,0,0,1,244.65,169v.65a0,0,0,0,1,0,0H244a24.12,24.12,0,0,1-24.12-24.12v-.65A0,0,0,0,1,219.89,144.92Z"
      transform="translate(464.53 314.6) rotate(180)" />
    <g>
      <path id="HAND_L" data-name="HAND L" class="cls-1"
        d="M118.72,114.51A28.55,28.55,0,0,0,95.79,79a28.59,28.59,0,0,0,22.91,35.51Z" />
      <g id="LOOKING_GLASS_GRP" data-name="LOOKING GLASS GRP">
        <g id="kikkert">
          <polygon class="cls-8" points="111.56 83.37 47.62 81.76 47.62 108.07 111.56 106.46 111.56 83.37" />
          <polygon class="cls-8" points="144.71 87.58 87.04 86.59 87.04 103.24 144.71 102.24 144.71 87.58" />
          <path class="cls-8" d="M60.8,94.91A13.54,13.54,0,1,0,47.61,108,13.34,13.34,0,0,0,60.8,94.91Z" />
          <path class="cls-8"
            d="M121.75,94.91c0-6.22-4.51-11.37-10.19-11.51-5.83-.15-10.66,5-10.66,11.51s4.83,11.67,10.66,11.52C117.24,106.29,121.75,101.13,121.75,94.91Z" />
          <path class="cls-8"
            d="M150.78,94.91c0-4-2.7-7.27-6.07-7.33s-6.24,3.23-6.24,7.33,2.82,7.39,6.24,7.33S150.78,98.9,150.78,94.91Z" />
        </g>
        <path class="cls-9" d="M58.93,94.91A11.47,11.47,0,1,0,47.72,106,11.3,11.3,0,0,0,58.93,94.91Z" />
        <path class="cls-10"
          d="M47.72,86.19h0c4.18.06,8.41,2.94,8.41,8.32a1.1,1.1,0,1,1-2.19,0c0-4.16-3.14-6.08-6.25-6.12a1.1,1.1,0,0,1-1.08-1.12A1.08,1.08,0,0,1,47.72,86.19Z" />
      </g>
      <path id="HAND_L-2" data-name="HAND L" class="cls-1"
        d="M118.72,114.52a16.43,16.43,0,0,0,3.47-24.07,16.45,16.45,0,0,0-3.48,24.07Z" />
    </g>
    <g>
      <line class="cls-11" x1="168.38" y1="90.62" x2="166.25" y2="102.99" />
      <line class="cls-11" x1="214.84" y1="95.74" x2="212.71" y2="108.11" />
    </g>
  </g>
</svg>