<svg id="Layer_1" data-name="Layer 1" xmlns="http://www.w3.org/2000/svg" viewBox="0 0 1440 797">
  <defs>
    <style>
      .cls-1 {
        fill: none;
        stroke: #6effff;
        stroke-miterlimit: 10;
      }
    </style>
  </defs>
  <path class="cls-1" d="M1552.48,374.09c-405.19,63.74-518.83,90.47-594,137.13-8.59,5.33-98.32,49.76-136.62,60.07-82.63,22.23-160-6.47-278-66.27-41.76-21.17-102.22-63.5-190.73-64.66C253,439.05,210.91,459.76,115.94,459.7c-70.1,0-116.49-75.91-294.56-85.61"/>
</svg>
