<svg width="17" height="16" viewBox="0 0 17 16" fill="none" xmlns="http://www.w3.org/2000/svg">
<path d="M1.10352 8.25195H15.4713" stroke="#F9BD74" stroke-width="2.08333" stroke-linecap="round" stroke-linejoin="round"/>
<path d="M9.18555 1.96582L15.4715 8.25174L9.18555 14.5377" stroke="#F9BD74" stroke-width="2.08333" stroke-linecap="round" stroke-linejoin="round"/>
</svg>
